{
  "project_info": {
    "project_number": "294558180542",
    "firebase_url": "https://appp-93735.firebaseio.com",
    "project_id": "appp-93735",
    "storage_bucket": "appp-93735.appspot.com"
  },
  "client": [
    {
      "client_info": {
        "mobilesdk_app_id": "1:294558180542:android:6f9b857bd20411a1",
        "android_client_info": {
          "package_name": "com.app"
        }
      },
      "oauth_client": [
        {
          "client_id": "294558180542-opm8rrhfm22k30pht8a70t2uj6s1edj0.apps.googleusercontent.com",
          "client_type": 3
        }
      ],
      "api_key": [
        {
          "current_key": "AIzaSyBXDf91UvoO7Ql23rz7908EL4mGmpFfM-8"
        }
      ],
      "services": {
        "appinvite_service": {
          "other_platform_oauth_client": [
            {
              "client_id": "294558180542-opm8rrhfm22k30pht8a70t2uj6s1edj0.apps.googleusercontent.com",
              "client_type": 3
            }
          ]
        }
      }
    }
  ],
  "configuration_version": "1"
}